%YAML 1.1
%TAG !u! tag:unity3d.com,2011:
--- !u!1045 &1
EditorBuildSettings:
  m_ObjectHideFlags: 0
  serializedVersion: 2
  m_Scenes:
  - enabled: 1
    path: Assets/Game/Scenes/MainMenu.unity
    guid: acd50f4bbab6f7148ad0968f4073569e
  - enabled: 1
    path: Assets/Game/Scenes/GameScene.unity
    guid: 99c9720ab356a0642a771bea13969a05
  m_configObjects: {}
